ASC new sample gene set analysis
…
Below are top ranked genes.

## # A tibble: 17,849 x 4
##        X Gene          BF post.prob
##    <int> <chr>      <dbl>     <dbl>
##  1 10093 HLA-DRB1 2.13e15     1.00 
##  2  7049 SSC5D    5.48e12     1.00 
##  3 13643 GSTM1    3.10e11     1.00 
##  4  6420 TXNDC2   5.32e 6     1.00 
##  5  7169 PRAM1    1.81e 3     0.992
##  6  6234 ENPP7    2.86e 1     0.675
##  7   828 PTEN     1.47e 1     0.516
##  8   315 SUPT5H   1.42e 1     0.507
##  9   408 MICAL3   1.38e 1     0.500
## 10  5778 DPH1     1.32e 1     0.489
## # ... with 17,839 more rows
…
