ASC new sample
…
ASC new sample

Quality control (QC)

## this is ASC v17
## sample information 
# ASC v17:
#  6026 male probands
#  1265 female probands
#  1158 male siblings
#  1190 female siblings
ASC_new_sample2 

## # A tibble: 2,732,526 x 50
##    Variant Chrom   Qual Filters Gene  Gene_GRCh37 pLI   Consequence loftee
##    <fct>   <fct>  <dbl> <fct>   <fct> <fct>       <fct> <fct>       <fct> 
##  1 1:1000~ 1     8.97e2 SLC35A3 SLC3~ 0.06931537~ syno~ <NA>        <NA>  
##  2 1:1000~ 1     7.91e6 SLC35A3 SLC3~ 0.06931537~ syno~ <NA>        <NA>  
##  3 1:1000~ 1     3.28e3 SLC35A3 SLC3~ 0.06931537~ syno~ <NA>        <NA>  
##  4 1:1000~ 1     1.07e3 SLC35A3 SLC3~ 0.06931537~ miss~ <NA>        <NA>  
##  5 1:1000~ 1     7.24e2 SLC35A3 SLC3~ 0.06931537~ spli~ <NA>        <NA>  
##  6 1:1000~ 1     2.21e3 SLC35A3 SLC3~ 0.06931537~ miss~ <NA>        <NA>  
##  7 1:1000~ 1     3.54e2 SLC35A3 SLC3~ 0.06931537~ miss~ <NA>        <NA>  
##  8 1:1000~ 1     1.19e3 SLC35A3 SLC3~ 0.06931537~ syno~ <NA>        <NA>  
##  9 1:1000~ 1     2.73e2 SLC35A3 SLC3~ 0.06931537~ miss~ <NA>        <NA>  
## 10 1:1000~ 1     3.08e3 SLC35A3 SLC3~ 0.06931537~ fram~ HC          <NA>  
## # ... with 2,732,516 more rows, and 41 more variables: loftee_flags <fct>,
## #   MPC <fct>, isIndel <lgl>, isPTV <lgl>, isMis <lgl>, isSyn <fct>,
## #   num_alleles <dbl>, Call_Rate <dbl>, AC <int>, AN <dbl>, AF <dbl>,
## #   Gnomad_non_neuro_AF <dbl>, pHWE <dbl>, VQSLOD <dbl>, QD <dbl>,
## #   AS_ReadPosRankSum <dbl>, AS_SOR <dbl>, t_proband_male_dad <int>,
## #   t_proband_male_mom <int>, u_proband_male_dad <int>,
## #   u_proband_male_mom <int>, t_proband_male_ind <int>,
## #   u_proband_male_ind <int>, t_proband_female_dad <int>,
## #   t_proband_female_mom <int>, u_proband_female_dad <int>,
…
