Cell data
…
## Warning: package 'purrr' was built under R version 3.6.3

## Warning: package 'dplyr' was built under R version 3.6.3

## -- Conflicts ---------------------------------- tidyverse_conflicts() --
## x dplyr::filter() masks stats::filter()
## x dplyr::lag()    masks stats::lag()

This is the transmitted data from cell paper

## Joining, by = c("Variant", "FILTER", "VQSLOD", "GENE_NAME", "Consequence", "PCC_MAC", "MAC", "AN", "exac_AC", "exac_AN", "gnomad_AC", "gnomad_AN", "Transmitted_proband", "Untransmitted_proband", "Transmitted_sibling", "Untransmitted_sibling", "Transmitted_proband_male", "Untransmitted_proband_male", "Transmitted_proband_female", "Untransmitted_proband_female", "Transmitted_male_sibling", "Untransmitted_male_sibling", "Transmitted_female_sibling", "Untransmitted_female_sibling", "Missense", "PTV", "Inframe", "Indel", "pLI", "loftee", "loftee_flag", "MPC")

cell_trans_data

## # A tibble: 994,532 x 32
##    Variant FILTER  VQSLOD GENE_NAME Consequence PCC_MAC   MAC    AN exac_AC
##    <fct>   <fct>    <dbl> <fct>     <fct>         <int> <int> <int>   <int>
##  1 1:8612~ [PASS]  1.23   AL645608~ [missense_~       1     2 52584       4
##  2 1:8612~ [PASS] -1.90   AL645608~ [missense_~       1     1 52616      NA
##  3 1:8612~ [PASS] -0.043  AL645608~ [missense_~       4     4 52602      NA
##  4 1:8613~ [PASS] -0.745  SAMD11    [missense_~       1     2 52710      NA
##  5 1:8613~ [PASS]  2.41   SAMD11    [missense_~       2     2 52652      NA
##  6 1:8613~ [PASS] -1.42   AL645608~ [missense_~       1     1 52606      NA
##  7 1:8656~ [PASS] -0.856  SAMD11    [missense_~       1     2 49990      NA
##  8 1:8656~ [PASS] -0.287  SAMD11    [missense_~       1     2 50314       1
##  9 1:8656~ [PASS]  0.203  SAMD11    [missense_~       2     2 50628       3
## 10 1:8656~ [PASS] -0.0374 SAMD11    [missense_~       1     2 50456       1
## # ... with 994,522 more rows, and 23 more variables: exac_AN <int>,
## #   gnomad_AC <int>, gnomad_AN <int>, Transmitted_proband <int>,
## #   Untransmitted_proband <int>, Transmitted_sibling <int>,
## #   Untransmitted_sibling <int>, Transmitted_proband_male <int>,
## #   Untransmitted_proband_male <int>, Transmitted_proband_female <int>,
## #   Untransmitted_proband_female <int>, Transmitted_male_sibling <int>,
## #   Untransmitted_male_sibling <int>, Transmitted_female_sibling <int>,
## #   Untransmitted_female_sibling <int>, Missense <lgl>, PTV <lgl>,
## #   Inframe <lgl>, Indel <lgl>, pLI <dbl>, loftee <fct>,
…
