Gene set analysis for SCZ data
…
C7:Non-Damaging
\(0.001 \leq AF < 0.01\)
0
1

C8:Non-Damaging
\(AF < 0.001\)
0.26
0.12

Top genes

## # A tibble: 777 x 3
##    Gene        BF post.prob
##    <fct>    <dbl>     <dbl>
##  1 DNMT3A   73.8      0.882
##  2 MACF1    19.4      0.664
##  3 TMEM102  13.1      0.571
##  4 NOTCH2   10.2      0.509
##  5 ARHGAP35  8.28     0.457
##  6 CSMD2     7.80     0.442
##  7 UBR5      4.45     0.312
##  8 SRRT      4.32     0.305
##  9 GRIK5     3.67     0.272
## 10 RAPGEF2   3.54     0.265
## # ... with 767 more rows
…
