Gene Set Analysis
…
const.gene.BF.pvalue.combine %>% filter(post_prob>0.4)%>%select(Gene, BF, post_prob) %>% arrange(desc(post_prob))

## # A tibble: 24 x 3
##    Gene       BF post_prob
##    <chr>   <dbl>     <dbl>
##  1 CYFIP1  27.4      0.858
##  2 EP400   15.3      0.771
##  3 FBN1    11.9      0.722
##  4 SRCAP    9.83     0.683
##  5 DYNC1H1  9.48     0.675
##  6 ABCA2    8.92     0.662
##  7 DOCK4    8.45     0.650
##  8 CACNA1D  6.28     0.579
##  9 CHD8     5.19     0.532
## 10 TRIP12   4.79     0.513
## # ... with 14 more rows
…
Empirical distribution of BF by permutations

permutate the variant count in cases and controls for every gene 100 times, calculate Bayes factor by MIRAGE and get their empirical p value by comparing original BF and 100 permutated BF. The null distribution of BF is pooling BF’s of all genes through permutations together.

## # A tibble: 771 x 6
##    Gene       BF LoF.BF nonLoF.BF post_prob empirical.pvalue
##    <fct>   <dbl>  <dbl>     <dbl>     <dbl>            <dbl>
##  1 CYFIP1  27.4   1         27.4      0.858          0.00115
##  2 EP400   15.3   0.940     16.3      0.771          0.00154
##  3 FBN1    11.9   1         11.9      0.722          0.00200
##  4 SRCAP    9.83  1          9.83     0.683          0.00246
##  5 DYNC1H1  9.48  1.29       7.37     0.675          0.00259
##  6 ABCA2    8.92  1          8.92     0.662          0.00279
##  7 DOCK4    8.45  1          8.45     0.650          0.00293
##  8 CACNA1D  6.28  1          6.28     0.579          0.00428
##  9 CHD8     5.19  1.29       4.03     0.532          0.00559
## 10 KALRN    4.79  1.29       3.72     0.513          0.00658
## # ... with 761 more rows
…
