Gene set analysis
…
1<=MPC<2
\(\hat{\eta}_5\)
0.02
0.46

0<=MPC<1
\(\hat{\eta}_6\)
0.0014
1

Below are top ranked genes.

## # A tibble: 17,653 x 4
##        X Gene      BF post.prob
##    <int> <fct>  <dbl>     <dbl>
##  1    98 LYST   34.5      0.859
##  2   608 FGD6   23.9      0.808
##  3   484 SVIL   11.6      0.672
##  4   285 AP3B1   8.33     0.596
##  5   887 BRWD1   7.86     0.582
##  6   390 RELN    7.58     0.573
##  7   163 SPEG    6.54     0.537
##  8    10 ZBTB17  5.91     0.511
##  9  2640 ATXN10  5.59     0.497
## 10  2326 OR3A2   5.57     0.496
## # ... with 17,643 more rows
…
1<=MPC<2
\(\hat{\eta}_5\)
0.0201
0.6281

0<=MPC<1
\(\hat{\eta}_6\)
0.0096
0.7367

Below are top ranked genes.

## # A tibble: 100 x 4
##        X Gene       BF post.prob
##    <int> <fct>   <dbl>     <dbl>
##  1    74 KDM5B   35.1      0.987
##  2    78 UBR1     7.82     0.943
##  3    73 DIP2A    5.87     0.926
##  4    68 TCF7L2   4.28     0.901
##  5    67 PTEN     4.05     0.896
##  6    47 TAOK1    3.10     0.868
##  7    81 SCN1A    2.57     0.845
##  8    38 DYNC1H1  2.48     0.841
##  9    65 KCNQ3    2.34     0.833
## 10    60 NR3C2    2.14     0.820
## # ... with 90 more rows
…
1<=MPC<2
\(\hat{\eta}_5\)
0.0139
0.3919

0<=MPC<1
\(\hat{\eta}_6\)
0.0062
0.6398

Below are top ranked genes.

## # A tibble: 851 x 4
##        X Gene       BF post.prob
##    <int> <fct>   <dbl>     <dbl>
##  1   447 LPA      2.58     0.989
##  2    44 SPEG     1.79     0.984
##  3   209 MYH10    1.73     0.984
##  4   102 CUX1     1.71     0.984
##  5   145 LTBP3    1.69     0.984
##  6   140 CAPRIN1  1.69     0.983
##  7   500 MIB1     1.67     0.983
##  8   118 TLN1     1.65     0.983
##  9   207 EIF4A1   1.63     0.983
## 10    94 DOPEY1   1.62     0.983
## # ... with 841 more rows
…
